R Notebook
…
covid <-covid %>% 
  rename(
    Country = location,
      )

covid <- covid %>%
    group_by(Country) %>%
    summarize_at(c("total_cases", "total_deaths","total_tests",
                   "total_vaccinations","population","population_density","median_age","aged_65_older","aged_70_older"
                   ), max, na.rm = TRUE) %>% ungroup()
is.na(covid)<-sapply(covid, is.infinite)
covid

## # A tibble: 232 x 10
##    Country      total_cases total_deaths total_tests total_vaccinati~ population
##    <chr>              <dbl>        <dbl>       <dbl>            <dbl>      <dbl>
##  1 Afghanistan       151013         6961          NA          1767239   38928341
##  2 Africa           7083510       178796          NA         78303927 1340598113
##  3 Albania           134201         2460      737014          1280239    2877800
##  4 Algeria           183347         4618          NA          4146091   43851043
##  5 Andorra            14873          129      204740            82349      77265
##  6 Angola             43890         1057          NA          1695588   32866268
##  7 Anguilla              NA           NA          NA            18457      15002
##  8 Antigua and~        1348           43       16700            69903      97928
##  9 Argentina        5041487       108165    12442184         35247776   45195777
## 10 Armenia           232610         4658     1372405           194902    2963234
## # ... with 222 more rows, and 4 more variables: population_density <dbl>,
## #   median_age <dbl>, aged_65_older <dbl>, aged_70_older <dbl>

Data Cleaning

1.Omitting the null values from required columns. 2.Creating a new variable Death by Population.

covid_age<-covid %>% filter(!is.na(covid$median_age) & !is.na(covid$total_deaths) & !is.na(covid$aged_65_older) &   !is.na(covid$population))

covid_age$deaths_by_population <- (covid_age$total_deaths/covid_age$population)

covid_age

## # A tibble: 178 x 11
##    Country      total_cases total_deaths total_tests total_vaccinati~ population
##    <chr>              <dbl>        <dbl>       <dbl>            <dbl>      <dbl>
##  1 Afghanistan       151013         6961          NA          1767239   38928341
##  2 Albania           134201         2460      737014          1280239    2877800
##  3 Algeria           183347         4618          NA          4146091   43851043
##  4 Angola             43890         1057          NA          1695588   32866268
##  5 Antigua and~        1348           43       16700            69903      97928
##  6 Argentina        5041487       108165    12442184         35247776   45195777
##  7 Armenia           232610         4658     1372405           194902    2963234
##  8 Australia          37377          945    26751476         13958045   25499881
##  9 Austria           664133        10751    69283203         10039144    9006400
## 10 Azerbaijan        354662         5084     4133796          5478042   10139175
## # ... with 168 more rows, and 5 more variables: population_density <dbl>,
## #   median_age <dbl>, aged_65_older <dbl>, aged_70_older <dbl>,
## #   deaths_by_population <dbl>
…
dim(covid_pro)

## [1] 170  32

Data Pre-processing

Joining the covid dataset and countries protein intake dataset based on country.

Removing the null values from the required columns.

covid_final <- left_join(covid,covid_pro, by="Country")
Obesity_clean<-covid_final%>% filter( !is.na(covid_final$Obesity)& !is.na(covid_final$total_deaths) &!is.na(covid_final$population))
Obesity_clean

## # A tibble: 151 x 41
##    Country      total_cases total_deaths total_tests total_vaccinati~ population
##    <chr>              <dbl>        <dbl>       <dbl>            <dbl>      <dbl>
##  1 Afghanistan       151013         6961          NA          1767239   38928341
##  2 Albania           134201         2460      737014          1280239    2877800
##  3 Algeria           183347         4618          NA          4146091   43851043
##  4 Angola             43890         1057          NA          1695588   32866268
##  5 Antigua and~        1348           43       16700            69903      97928
##  6 Argentina        5041487       108165    12442184         35247776   45195777
##  7 Armenia           232610         4658     1372405           194902    2963234
##  8 Australia          37377          945    26751476         13958045   25499881
##  9 Austria           664133        10751    69283203         10039144    9006400
## 10 Azerbaijan        354662         5084     4133796          5478042   10139175
## # ... with 141 more rows, and 35 more variables: population_density <dbl>,
## #   median_age <dbl>, aged_65_older <dbl>, aged_70_older <dbl>,
## #   Alcoholic Beverages <dbl>, Animal Products <dbl>, Animal fats <dbl>,
## #   Aquatic Products, Other <dbl>, Cereals - Excluding Beer <dbl>, Eggs <dbl>,
## #   Fish, Seafood <dbl>, Fruits - Excluding Wine <dbl>, Meat <dbl>,
## #   Milk - Excluding Butter <dbl>, Offals <dbl>, Oilcrops <dbl>, Pulses <dbl>,
## #   Spices <dbl>, Starchy Roots <dbl>, Stimulants <dbl>, Sugar Crops <dbl>, ...
…
